[
	{
		"enabled": true,
		"state": {
			"name": "biomesoplenty:gem_ore",
			"properties": {
				"variant": "amethyst"
			}
		},
		"dimensionFilter": "whitelist",
		"dimensionSelector": "id",
		"dimension": [ 0 ],
		"biomeFilter": "whitelist",
		"biomeSelector": "id",
		"biome": [ "*" ],
		"weight": 5
	}
]
